<svg width="12" height="15" viewBox="0 0 12 15" fill="none" xmlns="http://www.w3.org/2000/svg">
<path d="M5.20556 4.34471C6.40531 4.34471 7.37791 3.37211 7.37791 2.17235C7.37791 0.972596 6.40531 0 5.20556 0C4.0058 0 3.0332 0.972596 3.0332 2.17235C3.0332 3.37211 4.0058 4.34471 5.20556 4.34471Z" fill="black"/>
<path d="M10.648 6.38557C10.6357 6.38149 10.6233 6.37786 10.6107 6.37471L9.00751 5.97392L6.98017 4.45327C6.88617 4.38276 6.77183 4.34467 6.65432 4.34467H3.80149C3.65747 4.3447 3.51936 4.40194 3.41754 4.50377L0.15902 7.76229C-0.0530066 7.97438 -0.0530066 8.31815 0.15902 8.5302L0.517456 8.88864C0.713126 9.0844 1.02472 9.10172 1.24085 8.92883L3.57667 7.06008V9.23244L3.03358 11.9479L1.71932 13.2621C1.53619 13.4452 1.50777 13.7321 1.65145 13.9475L2.16196 14.7132C2.32813 14.9629 2.66528 15.0307 2.91495 14.8645C2.92812 14.8557 2.94088 14.8464 2.95323 14.8365L5.06258 13.1486C5.15553 13.0744 5.22152 12.9718 5.25048 12.8564L5.74903 10.8617L6.83519 12.4909L7.70414 14.6584C7.81551 14.9369 8.13156 15.0724 8.41003 14.961C8.42407 14.9554 8.43788 14.9492 8.4514 14.9424L9.63805 14.3494C9.89546 14.2208 10.0079 13.9137 9.89437 13.6493L8.46441 10.3186L7.37825 8.68931L7.29135 7.06005L8.46441 7.60315L10.148 8.02405C10.4233 8.09282 10.7051 7.93804 10.7948 7.66886L10.9936 7.07148C11.0876 6.78664 10.9329 6.47957 10.648 6.38557Z" fill="black"/>
</svg>
