<svg width="124" height="36" viewBox="0 0 124 36" fill="none" xmlns="http://www.w3.org/2000/svg">
    <path
        d="M0 5C0 2.23858 2.23858 0 5 0H119C121.761 0 124 2.23858 124 5V31C124 33.7614 121.761 36 119 36H5C2.23858 36 0 33.7614 0 31V5Z"
        fill="#C4C4C4" />
    <path
        d="M0 5C0 2.23858 2.23858 0 5 0H119C121.761 0 124 2.23858 124 5V31C124 33.7614 121.761 36 119 36H5C2.23858 36 0 33.7614 0 31V5Z"
        fill="url(#paint0_linear)" />
    <g opacity="0.4">
        <path d="M41 0H5C2.2 0 0 2.2 0 5V31C0 33.8 2.2 36 5 36H77.2L41 0Z" fill="#C4C4C4" />
        <path d="M41 0H5C2.2 0 0 2.2 0 5V31C0 33.8 2.2 36 5 36H77.2L41 0Z" fill="url(#paint1_linear)" />
    </g>
    <path
        d="M16.9635 27.9622C16.398 27.9402 15.558 27.3253 15.1902 26.9136C14.2569 25.854 13.4938 24.6847 12.9613 23.3781C12.3464 21.8903 11.9841 20.3476 12.0005 18.728C12.0115 17.5642 12.2421 16.4442 12.824 15.4286C13.5432 14.1714 14.6083 13.3424 16.0302 13.013C16.5957 12.8812 17.1721 12.8263 17.7376 12.9965C18.303 13.1612 18.863 13.3589 19.4175 13.562C19.9006 13.7377 20.3728 13.8639 20.8778 13.6443C21.2072 13.5016 21.5531 13.3863 21.8935 13.26C22.448 13.0569 23.0134 12.8648 23.6118 12.8483C24.7702 12.8153 25.8408 13.0953 26.7796 13.7926C27.1694 14.078 27.4933 14.4239 27.7678 14.8357C27.7293 14.8631 27.7019 14.8851 27.6689 14.907C27.2627 15.187 26.9058 15.5164 26.5929 15.9007C25.7694 16.9164 25.4784 18.0747 25.6761 19.3594C25.8133 20.2543 26.1976 21.0283 26.829 21.6817C27.2133 22.0824 27.8611 22.4997 28.3607 22.7412C28.2728 22.9443 28.1027 23.2792 28.0203 23.4879C27.6689 24.3717 27.1913 25.1897 26.6368 25.9638C26.2415 26.5128 25.8408 27.0563 25.2973 27.4791C24.8032 27.8634 24.2542 28.0555 23.6173 28.0116C23.1342 27.9786 22.6895 27.8249 22.2558 27.6273C21.3115 27.1881 20.3453 27.1003 19.3461 27.4132C19.0991 27.49 18.863 27.6108 18.616 27.6932C18.2262 27.8085 17.3752 27.9786 16.9635 27.9622Z"
        fill="white" />
    <path
        d="M26.8301 21.6699C26.1988 21.0166 25.8145 20.2425 25.6772 19.3476C25.4851 18.063 25.7705 16.9046 26.594 15.889C26.907 15.5047 27.2638 15.1753 27.6701 14.8953C27.703 14.8733 27.7305 14.8513 27.7634 14.8239C27.4944 14.4176 27.165 14.0718 26.7752 13.7808C25.8309 13.0891 24.7659 12.8036 23.6075 12.8365C23.0091 12.853 22.4436 13.0451 21.8891 13.2483C21.5488 13.3745 21.2029 13.4843 20.8735 13.6326C20.6264 13.7369 20.3904 13.7643 20.1543 13.7424V27.2312C20.868 27.1599 21.5652 27.2916 22.257 27.61C22.6907 27.8077 23.1354 27.9614 23.6185 27.9943C24.2498 28.0383 24.7988 27.8461 25.2984 27.4618C25.8419 27.0391 26.2427 26.4956 26.638 25.9466C27.1979 25.178 27.6701 24.36 28.0214 23.4706C28.1038 23.262 28.274 22.9326 28.3618 22.724C27.8622 22.4879 27.2199 22.0707 26.8301 21.6699Z"
        fill="#F2F2F2" />
    <path
        d="M24.1176 8C24.1176 8.31842 24.1506 8.64233 24.1011 8.94977C23.9255 10.1027 23.382 11.0634 22.4706 11.7936C21.7953 12.3371 21.0322 12.661 20.1319 12.6061C20.0825 12.2602 20.0935 11.9144 20.1648 11.574C20.4338 10.3662 21.0762 9.40544 22.1083 8.71919C22.6408 8.36234 23.2227 8.12078 23.8651 8.02745C23.898 8.02196 24.0682 8 24.1176 8Z"
        fill="#F2F2F2" />
    <path
        d="M39.612 7.7H41.862C43.584 7.7 44.445 8.711 44.445 10.733C44.445 11.513 44.349 12.143 44.157 12.623C43.965 13.097 43.662 13.445 43.248 13.667C42.84 13.889 42.297 14 41.619 14H39.612V7.7ZM41.754 12.965C42.096 12.965 42.369 12.89 42.573 12.74C42.777 12.59 42.924 12.353 43.014 12.029C43.11 11.705 43.158 11.273 43.158 10.733C43.158 10.019 43.056 9.509 42.852 9.203C42.648 8.891 42.309 8.735 41.835 8.735H40.908V12.965H41.754ZM47.3754 14.09C46.6494 14.09 46.0824 13.883 45.6744 13.469C45.2664 13.055 45.0624 12.482 45.0624 11.75C45.0624 11.018 45.2664 10.445 45.6744 10.031C46.0824 9.617 46.6494 9.41 47.3754 9.41C48.1014 9.41 48.6684 9.617 49.0764 10.031C49.4904 10.445 49.6974 11.018 49.6974 11.75C49.6974 12.482 49.4904 13.055 49.0764 13.469C48.6684 13.883 48.1014 14.09 47.3754 14.09ZM47.3754 13.235C47.7414 13.235 48.0294 13.103 48.2394 12.839C48.4494 12.575 48.5544 12.212 48.5544 11.75C48.5544 11.288 48.4494 10.925 48.2394 10.661C48.0294 10.397 47.7414 10.265 47.3754 10.265C47.0094 10.265 46.7214 10.397 46.5114 10.661C46.3074 10.925 46.2054 11.288 46.2054 11.75C46.2054 12.212 46.3074 12.575 46.5114 12.839C46.7214 13.103 47.0094 13.235 47.3754 13.235ZM56.2323 9.5L55.0803 14H54.0723L53.1723 10.742L52.2723 14H51.2553L50.1033 9.5H51.3003L51.8673 12.299L52.6593 9.5H53.6763L54.4683 12.299L55.0353 9.5H56.2323ZM56.7726 10.688C56.7726 10.142 56.7606 9.746 56.7366 9.5H57.8166C57.8466 9.752 57.8616 10.013 57.8616 10.283H57.8886C57.9966 10.019 58.1856 9.809 58.4556 9.653C58.7316 9.491 59.0376 9.41 59.3736 9.41C59.8896 9.41 60.2796 9.584 60.5436 9.932C60.8076 10.28 60.9396 10.793 60.9396 11.471V14H59.7966V11.462C59.7966 11.072 59.7336 10.787 59.6076 10.607C59.4816 10.427 59.2806 10.337 59.0046 10.337C58.6866 10.337 58.4256 10.451 58.2216 10.679C58.0236 10.901 57.9246 11.189 57.9246 11.543V14H56.7726V10.688ZM63.1129 14.09C62.7289 14.09 62.4349 13.988 62.2309 13.784C62.0329 13.574 61.9339 13.274 61.9339 12.884V7.322H63.0769V12.902C63.0769 13.034 63.1099 13.133 63.1759 13.199C63.2479 13.259 63.3529 13.289 63.4909 13.289C63.6289 13.289 63.7999 13.25 64.0039 13.172L64.1749 13.784C63.9049 13.988 63.5509 14.09 63.1129 14.09ZM66.4565 14.09C65.7305 14.09 65.1635 13.883 64.7555 13.469C64.3475 13.055 64.1435 12.482 64.1435 11.75C64.1435 11.018 64.3475 10.445 64.7555 10.031C65.1635 9.617 65.7305 9.41 66.4565 9.41C67.1825 9.41 67.7495 9.617 68.1575 10.031C68.5715 10.445 68.7785 11.018 68.7785 11.75C68.7785 12.482 68.5715 13.055 68.1575 13.469C67.7495 13.883 67.1825 14.09 66.4565 14.09ZM66.4565 13.235C66.8225 13.235 67.1105 13.103 67.3205 12.839C67.5305 12.575 67.6355 12.212 67.6355 11.75C67.6355 11.288 67.5305 10.925 67.3205 10.661C67.1105 10.397 66.8225 10.265 66.4565 10.265C66.0905 10.265 65.8025 10.397 65.5925 10.661C65.3885 10.925 65.2865 11.288 65.2865 11.75C65.2865 12.212 65.3885 12.575 65.5925 12.839C65.8025 13.103 66.0905 13.235 66.4565 13.235ZM70.8764 14.09C70.5824 14.09 70.3184 14.03 70.0844 13.91C69.8504 13.784 69.6674 13.613 69.5354 13.397C69.4034 13.175 69.3374 12.929 69.3374 12.659C69.3374 12.197 69.5204 11.843 69.8864 11.597C70.2524 11.351 70.7744 11.228 71.4524 11.228H72.1544V11.039C72.1544 10.799 72.0824 10.616 71.9384 10.49C71.8004 10.358 71.6024 10.292 71.3444 10.292C71.0744 10.292 70.8164 10.34 70.5704 10.436C70.3244 10.532 70.1234 10.664 69.9674 10.832L69.4634 10.166C69.7094 9.932 70.0004 9.749 70.3364 9.617C70.6724 9.479 71.0204 9.41 71.3804 9.41C71.9804 9.41 72.4514 9.551 72.7934 9.833C73.1354 10.115 73.3064 10.505 73.3064 11.003V13.055C73.3064 13.193 73.3154 13.355 73.3334 13.541C73.3574 13.727 73.3844 13.88 73.4144 14H72.3974C72.3614 13.922 72.3344 13.847 72.3164 13.775C72.2984 13.697 72.2834 13.592 72.2714 13.46H72.2534C71.9114 13.88 71.4524 14.09 70.8764 14.09ZM71.1554 13.226C71.4434 13.226 71.6804 13.154 71.8664 13.01C72.0584 12.86 72.1544 12.671 72.1544 12.443V11.993H71.4164C71.1104 11.993 70.8734 12.05 70.7054 12.164C70.5434 12.278 70.4624 12.443 70.4624 12.659C70.4624 12.839 70.5224 12.98 70.6424 13.082C70.7684 13.178 70.9394 13.226 71.1554 13.226ZM75.9731 14.09C75.3851 14.09 74.9201 13.877 74.5781 13.451C74.2421 13.019 74.0741 12.428 74.0741 11.678C74.0741 11.222 74.1521 10.823 74.3081 10.481C74.4641 10.139 74.6861 9.875 74.9741 9.689C75.2681 9.503 75.6101 9.41 76.0001 9.41C76.2641 9.41 76.4951 9.455 76.6931 9.545C76.8971 9.635 77.0741 9.773 77.2241 9.959H77.2421V7.322H78.3851V12.803C78.3851 13.427 78.3941 13.826 78.4121 14H77.3321C77.3261 13.898 77.3231 13.7 77.3231 13.406H77.3051C77.1671 13.61 76.9751 13.775 76.7291 13.901C76.4891 14.027 76.2371 14.09 75.9731 14.09ZM76.1981 13.208C76.5161 13.208 76.7681 13.118 76.9541 12.938C77.1461 12.752 77.2421 12.509 77.2421 12.209V11.282C77.2421 10.988 77.1431 10.745 76.9451 10.553C76.7471 10.361 76.4981 10.265 76.1981 10.265C75.8801 10.265 75.6371 10.388 75.4691 10.634C75.3011 10.88 75.2171 11.234 75.2171 11.696C75.2171 12.182 75.3011 12.557 75.4691 12.821C75.6371 13.079 75.8801 13.208 76.1981 13.208ZM83.5512 14.09C82.8252 14.09 82.2582 13.883 81.8502 13.469C81.4422 13.055 81.2382 12.482 81.2382 11.75C81.2382 11.018 81.4422 10.445 81.8502 10.031C82.2582 9.617 82.8252 9.41 83.5512 9.41C84.2772 9.41 84.8442 9.617 85.2522 10.031C85.6662 10.445 85.8732 11.018 85.8732 11.75C85.8732 12.482 85.6662 13.055 85.2522 13.469C84.8442 13.883 84.2772 14.09 83.5512 14.09ZM83.5512 13.235C83.9172 13.235 84.2052 13.103 84.4152 12.839C84.6252 12.575 84.7302 12.212 84.7302 11.75C84.7302 11.288 84.6252 10.925 84.4152 10.661C84.2052 10.397 83.9172 10.265 83.5512 10.265C83.1852 10.265 82.8972 10.397 82.6872 10.661C82.4832 10.925 82.3812 11.288 82.3812 11.75C82.3812 12.212 82.4832 12.575 82.6872 12.839C82.8972 13.103 83.1852 13.235 83.5512 13.235ZM86.5851 10.688C86.5851 10.142 86.5731 9.746 86.5491 9.5H87.6291C87.6591 9.752 87.6741 10.013 87.6741 10.283H87.7011C87.8091 10.019 87.9981 9.809 88.2681 9.653C88.5441 9.491 88.8501 9.41 89.1861 9.41C89.7021 9.41 90.0921 9.584 90.3561 9.932C90.6201 10.28 90.7521 10.793 90.7521 11.471V14H89.6091V11.462C89.6091 11.072 89.5461 10.787 89.4201 10.607C89.2941 10.427 89.0931 10.337 88.8171 10.337C88.4991 10.337 88.2381 10.451 88.0341 10.679C87.8361 10.901 87.7371 11.189 87.7371 11.543V14H86.5851V10.688ZM95.728 14.09C95.266 14.09 94.906 13.964 94.648 13.712C94.39 13.46 94.261 13.106 94.261 12.65V10.355H93.442V9.5H94.261V8.339L95.377 8.015H95.413V9.5H96.718V10.355H95.413V12.479C95.413 12.737 95.473 12.926 95.593 13.046C95.713 13.166 95.896 13.226 96.142 13.226C96.376 13.226 96.595 13.19 96.799 13.118L96.853 13.901C96.583 14.027 96.208 14.09 95.728 14.09ZM97.5453 7.322H98.6973V10.031C98.8353 9.839 99.0273 9.689 99.2733 9.581C99.5253 9.467 99.7983 9.41 100.092 9.41C100.602 9.41 101.01 9.578 101.316 9.914C101.628 10.25 101.784 10.712 101.784 11.3V14H100.632V11.381C100.632 11.033 100.557 10.76 100.407 10.562C100.257 10.364 100.05 10.265 99.7863 10.265C99.4563 10.265 99.1923 10.382 98.9943 10.616C98.7963 10.844 98.6973 11.156 98.6973 11.552V14H97.5453V7.322ZM106.819 12.173H103.687C103.783 12.809 104.152 13.127 104.794 13.127C105.058 13.127 105.286 13.082 105.478 12.992C105.676 12.902 105.868 12.752 106.054 12.542L106.675 13.136C106.501 13.424 106.237 13.655 105.883 13.829C105.535 14.003 105.151 14.09 104.731 14.09C104.029 14.09 103.483 13.886 103.093 13.478C102.703 13.064 102.508 12.494 102.508 11.768C102.508 11.036 102.703 10.46 103.093 10.04C103.489 9.62 104.032 9.41 104.722 9.41C105.382 9.41 105.895 9.617 106.261 10.031C106.633 10.445 106.819 11.021 106.819 11.759V12.173ZM105.694 11.336C105.694 11.03 105.604 10.79 105.424 10.616C105.25 10.436 105.007 10.346 104.695 10.346C104.413 10.346 104.185 10.439 104.011 10.625C103.837 10.805 103.726 11.06 103.678 11.39H105.694V11.336Z"
        fill="black" />
    <path
        d="M45.174 27.376H41.8L41.31 29H39.21L42.598 19.2H44.376L47.764 29H45.664L45.174 27.376ZM44.684 25.766L43.494 21.846L42.29 25.766H44.684ZM48.7108 23.862C48.7108 23.106 48.6921 22.4853 48.6548 22H50.3348C50.3628 22.28 50.3768 22.588 50.3768 22.924H50.4048C50.6381 22.588 50.9414 22.3267 51.3148 22.14C51.6881 21.9533 52.1034 21.86 52.5608 21.86C53.4474 21.86 54.1474 22.1867 54.6608 22.84C55.1741 23.4933 55.4308 24.3847 55.4308 25.514C55.4308 26.6433 55.1694 27.53 54.6468 28.174C54.1334 28.818 53.4194 29.14 52.5048 29.14C52.0568 29.14 51.6601 29.0653 51.3148 28.916C50.9694 28.7667 50.7128 28.5567 50.5448 28.286H50.5028V32.388H48.7108V23.862ZM52.1128 27.81C52.6074 27.81 52.9854 27.6093 53.2468 27.208C53.5081 26.7973 53.6388 26.214 53.6388 25.458C53.6388 23.974 53.1394 23.232 52.1408 23.232C51.6554 23.232 51.2588 23.3767 50.9508 23.666C50.6521 23.946 50.5028 24.3193 50.5028 24.786V26.228C50.5028 26.676 50.6568 27.054 50.9648 27.362C51.2728 27.6607 51.6554 27.81 52.1128 27.81ZM56.6268 23.862C56.6268 23.106 56.6081 22.4853 56.5708 22H58.2508C58.2788 22.28 58.2928 22.588 58.2928 22.924H58.3208C58.5541 22.588 58.8574 22.3267 59.2308 22.14C59.6041 21.9533 60.0194 21.86 60.4768 21.86C61.3634 21.86 62.0634 22.1867 62.5768 22.84C63.0901 23.4933 63.3468 24.3847 63.3468 25.514C63.3468 26.6433 63.0854 27.53 62.5628 28.174C62.0494 28.818 61.3354 29.14 60.4208 29.14C59.9728 29.14 59.5761 29.0653 59.2308 28.916C58.8854 28.7667 58.6288 28.5567 58.4608 28.286H58.4188V32.388H56.6268V23.862ZM60.0288 27.81C60.5234 27.81 60.9014 27.6093 61.1628 27.208C61.4241 26.7973 61.5548 26.214 61.5548 25.458C61.5548 23.974 61.0554 23.232 60.0568 23.232C59.5714 23.232 59.1748 23.3767 58.8668 23.666C58.5681 23.946 58.4188 24.3193 58.4188 24.786V26.228C58.4188 26.676 58.5728 27.054 58.8808 27.362C59.1888 27.6607 59.5714 27.81 60.0288 27.81ZM70.9044 29.14C70.167 29.14 69.4997 28.9907 68.9024 28.692C68.3144 28.3933 67.8337 27.964 67.4604 27.404L68.6224 26.284C68.9304 26.648 69.3037 26.9467 69.7424 27.18C70.181 27.4133 70.5917 27.53 70.9744 27.53C71.4037 27.53 71.749 27.432 72.0104 27.236C72.2717 27.04 72.4024 26.7833 72.4024 26.466C72.4024 26.2327 72.3604 26.0413 72.2764 25.892C72.1924 25.7427 72.0337 25.5933 71.8004 25.444C71.567 25.2853 71.1844 25.0753 70.6524 24.814C69.9524 24.4687 69.4017 24.1467 69.0004 23.848C68.599 23.5493 68.3004 23.2273 68.1044 22.882C67.9177 22.5273 67.8244 22.1167 67.8244 21.65C67.8244 21.1367 67.9597 20.684 68.2304 20.292C68.501 19.9 68.8837 19.5967 69.3784 19.382C69.873 19.1673 70.4424 19.06 71.0864 19.06C71.7957 19.06 72.421 19.1953 72.9624 19.466C73.513 19.7367 73.9144 20.11 74.1664 20.586L72.8924 21.538C72.4257 20.9593 71.8517 20.67 71.1704 20.67C70.741 20.67 70.4097 20.754 70.1764 20.922C69.943 21.09 69.8264 21.328 69.8264 21.636C69.8264 21.8227 69.8824 21.9907 69.9944 22.14C70.1157 22.2893 70.3304 22.4527 70.6384 22.63C70.9464 22.8073 71.4084 23.0407 72.0244 23.33C72.6217 23.61 73.0884 23.89 73.4244 24.17C73.7697 24.45 74.017 24.7627 74.1664 25.108C74.3157 25.4533 74.3904 25.864 74.3904 26.34C74.3904 26.9 74.2457 27.3947 73.9564 27.824C73.6764 28.244 73.2704 28.5707 72.7384 28.804C72.2157 29.028 71.6044 29.14 70.9044 29.14ZM78.5033 29.14C77.7846 29.14 77.2246 28.944 76.8233 28.552C76.422 28.16 76.2213 27.6093 76.2213 26.9V23.33H74.9473V22H76.2213V20.194L77.9573 19.69H78.0133V22H80.0433V23.33H78.0133V26.634C78.0133 27.0353 78.1066 27.3293 78.2933 27.516C78.48 27.7027 78.7646 27.796 79.1473 27.796C79.5113 27.796 79.852 27.74 80.1693 27.628L80.2533 28.846C79.8333 29.042 79.25 29.14 78.5033 29.14ZM84.2804 29.14C83.151 29.14 82.269 28.818 81.6344 28.174C80.9997 27.53 80.6824 26.6387 80.6824 25.5C80.6824 24.3613 80.9997 23.47 81.6344 22.826C82.269 22.182 83.151 21.86 84.2804 21.86C85.4097 21.86 86.2917 22.182 86.9264 22.826C87.5704 23.47 87.8924 24.3613 87.8924 25.5C87.8924 26.6387 87.5704 27.53 86.9264 28.174C86.2917 28.818 85.4097 29.14 84.2804 29.14ZM84.2804 27.81C84.8497 27.81 85.2977 27.6047 85.6244 27.194C85.951 26.7833 86.1144 26.2187 86.1144 25.5C86.1144 24.7813 85.951 24.2167 85.6244 23.806C85.2977 23.3953 84.8497 23.19 84.2804 23.19C83.711 23.19 83.263 23.3953 82.9364 23.806C82.619 24.2167 82.4604 24.7813 82.4604 25.5C82.4604 26.2187 82.619 26.7833 82.9364 27.194C83.263 27.6047 83.711 27.81 84.2804 27.81ZM89.0978 23.708C89.0978 22.9147 89.0838 22.3453 89.0558 22H90.7498C90.7871 22.364 90.8058 22.7747 90.8058 23.232V23.372H90.8618C91.0391 22.9147 91.3518 22.5507 91.7998 22.28C92.2478 22 92.7611 21.86 93.3398 21.86C93.4518 21.86 93.5918 21.874 93.7598 21.902V23.316C93.7225 23.2973 93.6105 23.288 93.4238 23.288C92.9758 23.288 92.5558 23.4093 92.1638 23.652C91.7811 23.8947 91.4731 24.2213 91.2398 24.632C91.0065 25.0333 90.8898 25.4673 90.8898 25.934V29H89.0978V23.708ZM101.06 26.158H96.1883C96.3376 27.1473 96.9116 27.642 97.9103 27.642C98.3209 27.642 98.6756 27.572 98.9743 27.432C99.2823 27.292 99.5809 27.0587 99.8703 26.732L100.836 27.656C100.566 28.104 100.155 28.4633 99.6043 28.734C99.0629 29.0047 98.4656 29.14 97.8123 29.14C96.7203 29.14 95.8709 28.8227 95.2643 28.188C94.6576 27.544 94.3543 26.6573 94.3543 25.528C94.3543 24.3893 94.6576 23.4933 95.2643 22.84C95.8803 22.1867 96.7249 21.86 97.7983 21.86C98.8249 21.86 99.6229 22.182 100.192 22.826C100.771 23.47 101.06 24.366 101.06 25.514V26.158ZM99.3103 24.856C99.3103 24.38 99.1703 24.0067 98.8903 23.736C98.6196 23.456 98.2416 23.316 97.7563 23.316C97.3176 23.316 96.9629 23.4607 96.6923 23.75C96.4216 24.03 96.2489 24.4267 96.1743 24.94H99.3103V24.856Z"
        fill="black" />
    <defs>
        <linearGradient id="paint0_linear" x1="161.2" y1="-18" x2="122.647" y2="106.255" gradientUnits="userSpaceOnUse">
            <stop stop-color="white" />
            <stop offset="1" stop-color="#E0E0E0" />
        </linearGradient>
        <linearGradient id="paint1_linear" x1="71.4335" y1="4.88008e-07" x2="36.8819" y2="57.5702"
            gradientUnits="userSpaceOnUse">
            <stop stop-color="#E0E0E0" />
            <stop offset="1" stop-color="#A0A0A0" />
        </linearGradient>
    </defs>
</svg>