<svg width="256" height="36" viewBox="0 0 256 36" fill="none" xmlns="http://www.w3.org/2000/svg">
    <path
        d="M0 5C0 2.23858 2.23858 0 5 0H251C253.761 0 256 2.23858 256 5V31C256 33.7614 253.761 36 251 36H5C2.23858 36 0 33.7614 0 31V5Z"
        fill="black" />
    <path opacity="0.35" d="M102.8 0L5 0C2.2 0 0 2.2 0 5V31C0 33.8 2.2 36 5 36H139L102.8 0Z"
        fill="url(#paint0_linear)" />
    <path
        d="M19.8646 9.63845L12.3646 10.6493C12.1562 10.6763 12 10.8655 12 11.0817V17.1357C12 17.3736 12.1875 17.5682 12.4167 17.5682H19.9167C20.1458 17.5682 20.3333 17.3736 20.3333 17.1357V10.0655C20.3333 9.94115 20.2812 9.82224 20.1927 9.74115C20.099 9.66007 19.9844 9.62224 19.8646 9.63845Z"
        fill="#F44336" />
    <path
        d="M31.8587 8.16226C31.7702 8.08118 31.6504 8.03794 31.5306 8.05416L21.5306 9.40551C21.3223 9.43253 21.166 9.62172 21.166 9.83794V17.1352C21.166 17.3731 21.3535 17.5677 21.5827 17.5677H31.5827C31.8118 17.5677 31.9993 17.3731 31.9993 17.1352V8.48659C31.9993 8.36226 31.9473 8.24334 31.8587 8.16226Z"
        fill="#4CAF50" />
    <path
        d="M19.9167 18.4316H12.4167C12.1875 18.4316 12 18.6262 12 18.8641V24.9181C12 25.1344 12.1562 25.3235 12.3646 25.3506L19.8646 26.3668C19.8802 26.3668 19.901 26.3668 19.9167 26.3668C20.1458 26.3668 20.3333 26.1722 20.3333 25.9344V18.8641C20.3333 18.6262 20.1458 18.4316 19.9167 18.4316Z"
        fill="#2196F3" />
    <path
        d="M31.5827 18.4316H21.5827C21.3535 18.4316 21.166 18.6262 21.166 18.8641V26.1614C21.166 26.3776 21.3223 26.5668 21.5306 26.5938L31.5306 27.9452C31.5462 27.9452 31.5671 27.9452 31.5827 27.9452C31.8118 27.9452 31.9993 27.7506 31.9993 27.5127V18.8641C31.9993 18.6262 31.8118 18.4316 31.5827 18.4316Z"
        fill="#FFC107" />
    <defs>
        <linearGradient id="paint0_linear" x1="-43.6857" y1="77.0625" x2="48.661" y2="-60.6008"
            gradientUnits="userSpaceOnUse">
            <stop stop-color="#444444" />
            <stop offset="0.854167" stop-color="#6A6969" />
        </linearGradient>
    </defs>
</svg>